{
  "project_info": {
    "project_number": "754612058858",
    "project_id": "mamonova-flutter",
    "storage_bucket": "mamonova-flutter.appspot.com"
  },
  "client": [
    {
      "client_info": {
        "mobilesdk_app_id": "1:754612058858:android:7c801531022def0f863593",
        "android_client_info": {
          "package_name": "com.help.mamonova_proj_191_331"
        }
      },
      "oauth_client": [
        {
          "client_id": "754612058858-ltm11mtbnotnlspn856f21bvmt6b0p5c.apps.googleusercontent.com",
          "client_type": 3
        }
      ],
      "api_key": [
        {
          "current_key": "AIzaSyB9pVFpPFOte_qnrbyjCaZmWRF3eyUOTcc"
        }
      ],
      "services": {
        "appinvite_service": {
          "other_platform_oauth_client": [
            {
              "client_id": "754612058858-ltm11mtbnotnlspn856f21bvmt6b0p5c.apps.googleusercontent.com",
              "client_type": 3
            }
          ]
        }
      }
    }
  ],
  "configuration_version": "1"
}